%YAML 1.1
%TAG !u! tag:unity3d.com,2011:
--- !u!1001 &1984624804353762564
PrefabInstance:
  m_ObjectHideFlags: 0
  serializedVersion: 2
  m_Modification:
    m_TransformParent: {fileID: 0}
    m_Modifications:
    - target: {fileID: 4508127674098014427, guid: 24c8a5d50f3324947be818421b606f59,
        type: 3}
      propertyPath: m_Name
      value: Bullet
      objectReference: {fileID: 0}
    - target: {fileID: 4508127674098014427, guid: 24c8a5d50f3324947be818421b606f59,
        type: 3}
      propertyPath: m_Layer
      value: 11
      objectReference: {fileID: 0}
    - target: {fileID: 4508127674098014424, guid: 24c8a5d50f3324947be818421b606f59,
        type: 3}
      propertyPath: m_LocalPosition.x
      value: 2.669936
      objectReference: {fileID: 0}
    - target: {fileID: 4508127674098014424, guid: 24c8a5d50f3324947be818421b606f59,
        type: 3}
      propertyPath: m_LocalPosition.y
      value: 0.13591576
      objectReference: {fileID: 0}
    - target: {fileID: 4508127674098014424, guid: 24c8a5d50f3324947be818421b606f59,
        type: 3}
      propertyPath: m_LocalPosition.z
      value: -8.103176
      objectReference: {fileID: 0}
    - target: {fileID: 4508127674098014424, guid: 24c8a5d50f3324947be818421b606f59,
        type: 3}
      propertyPath: m_LocalRotation.x
      value: -0
      objectReference: {fileID: 0}
    - target: {fileID: 4508127674098014424, guid: 24c8a5d50f3324947be818421b606f59,
        type: 3}
      propertyPath: m_LocalRotation.y
      value: -0
      objectReference: {fileID: 0}
    - target: {fileID: 4508127674098014424, guid: 24c8a5d50f3324947be818421b606f59,
        type: 3}
      propertyPath: m_LocalRotation.z
      value: -0
      objectReference: {fileID: 0}
    - target: {fileID: 4508127674098014424, guid: 24c8a5d50f3324947be818421b606f59,
        type: 3}
      propertyPath: m_LocalRotation.w
      value: 1
      objectReference: {fileID: 0}
    - target: {fileID: 4508127674098014424, guid: 24c8a5d50f3324947be818421b606f59,
        type: 3}
      propertyPath: m_RootOrder
      value: 0
      objectReference: {fileID: 0}
    - target: {fileID: 4508127674098014424, guid: 24c8a5d50f3324947be818421b606f59,
        type: 3}
      propertyPath: m_LocalEulerAnglesHint.x
      value: 0
      objectReference: {fileID: 0}
    - target: {fileID: 4508127674098014424, guid: 24c8a5d50f3324947be818421b606f59,
        type: 3}
      propertyPath: m_LocalEulerAnglesHint.y
      value: 0
      objectReference: {fileID: 0}
    - target: {fileID: 4508127674098014424, guid: 24c8a5d50f3324947be818421b606f59,
        type: 3}
      propertyPath: m_LocalEulerAnglesHint.z
      value: 0
      objectReference: {fileID: 0}
    - target: {fileID: 4508127674098014426, guid: 24c8a5d50f3324947be818421b606f59,
        type: 3}
      propertyPath: m_Materials.Array.data[0]
      value: 
      objectReference: {fileID: 2100000, guid: b35b249c2401747fa81bb5aff24f6840, type: 2}
    m_RemovedComponents: []
  m_SourcePrefab: {fileID: 100100000, guid: 24c8a5d50f3324947be818421b606f59, type: 3}
