%YAML 1.1
%TAG !u! tag:unity3d.com,2011:
--- !u!1001 &5678857846077446311
PrefabInstance:
  m_ObjectHideFlags: 0
  serializedVersion: 2
  m_Modification:
    m_TransformParent: {fileID: 0}
    m_Modifications:
    - target: {fileID: 2673690682662010335, guid: 89eedfedc6aae4c7fa9242d39974f450,
        type: 3}
      propertyPath: m_Name
      value: Arrow
      objectReference: {fileID: 0}
    - target: {fileID: 2673690682662010332, guid: 89eedfedc6aae4c7fa9242d39974f450,
        type: 3}
      propertyPath: m_LocalPosition.x
      value: 2.669936
      objectReference: {fileID: 0}
    - target: {fileID: 2673690682662010332, guid: 89eedfedc6aae4c7fa9242d39974f450,
        type: 3}
      propertyPath: m_LocalPosition.y
      value: 0.13591576
      objectReference: {fileID: 0}
    - target: {fileID: 2673690682662010332, guid: 89eedfedc6aae4c7fa9242d39974f450,
        type: 3}
      propertyPath: m_LocalPosition.z
      value: -8.103176
      objectReference: {fileID: 0}
    - target: {fileID: 2673690682662010332, guid: 89eedfedc6aae4c7fa9242d39974f450,
        type: 3}
      propertyPath: m_LocalRotation.x
      value: -0
      objectReference: {fileID: 0}
    - target: {fileID: 2673690682662010332, guid: 89eedfedc6aae4c7fa9242d39974f450,
        type: 3}
      propertyPath: m_LocalRotation.y
      value: -0
      objectReference: {fileID: 0}
    - target: {fileID: 2673690682662010332, guid: 89eedfedc6aae4c7fa9242d39974f450,
        type: 3}
      propertyPath: m_LocalRotation.z
      value: -0
      objectReference: {fileID: 0}
    - target: {fileID: 2673690682662010332, guid: 89eedfedc6aae4c7fa9242d39974f450,
        type: 3}
      propertyPath: m_LocalRotation.w
      value: 1
      objectReference: {fileID: 0}
    - target: {fileID: 2673690682662010332, guid: 89eedfedc6aae4c7fa9242d39974f450,
        type: 3}
      propertyPath: m_RootOrder
      value: 0
      objectReference: {fileID: 0}
    - target: {fileID: 2673690682662010332, guid: 89eedfedc6aae4c7fa9242d39974f450,
        type: 3}
      propertyPath: m_LocalEulerAnglesHint.x
      value: 0
      objectReference: {fileID: 0}
    - target: {fileID: 2673690682662010332, guid: 89eedfedc6aae4c7fa9242d39974f450,
        type: 3}
      propertyPath: m_LocalEulerAnglesHint.y
      value: 0
      objectReference: {fileID: 0}
    - target: {fileID: 2673690682662010332, guid: 89eedfedc6aae4c7fa9242d39974f450,
        type: 3}
      propertyPath: m_LocalEulerAnglesHint.z
      value: 0
      objectReference: {fileID: 0}
    - target: {fileID: 2673690682662010332, guid: 89eedfedc6aae4c7fa9242d39974f450,
        type: 3}
      propertyPath: m_LocalScale.x
      value: 0.1252649
      objectReference: {fileID: 0}
    - target: {fileID: 2673690682662010332, guid: 89eedfedc6aae4c7fa9242d39974f450,
        type: 3}
      propertyPath: m_LocalScale.y
      value: 0.1252649
      objectReference: {fileID: 0}
    - target: {fileID: 2673690682662010332, guid: 89eedfedc6aae4c7fa9242d39974f450,
        type: 3}
      propertyPath: m_LocalScale.z
      value: 0.8805
      objectReference: {fileID: 0}
    - target: {fileID: 2673690682662010333, guid: 89eedfedc6aae4c7fa9242d39974f450,
        type: 3}
      propertyPath: m_Mesh
      value: 
      objectReference: {fileID: 10202, guid: 0000000000000000e000000000000000, type: 0}
    m_RemovedComponents: []
  m_SourcePrefab: {fileID: 100100000, guid: 89eedfedc6aae4c7fa9242d39974f450, type: 3}
